^C:\USERS\ANTON\DESKTOP\MAYA\MAYA_TO_OPENGL\MAYA_TO_OPENGL\MAIN.CPP
/c /IC:\Users\Anton\Desktop\maya\maya_to_opengl\maya_to_opengl\freeglut\include /AI"C:\Program Files (x86)\Reference Assemblies\Microsoft\Framework\.NETFramework\v4.5\\" /AI"C:\Program Files (x86)\Windows Kits\8.1\References\CommonConfiguration\Neutral" /AI"C:\Program Files (x86)\Reference Assemblies\Microsoft\Framework\.NETFramework\v4.5\Facades\\" /Zi /clr /nologo /W3 /WX- /Od /Oy- /D WIN32 /D _DEBUG /D _UNICODE /D UNICODE /EHa /MDd /GS /fp:precise /Zc:wchar_t /Zc:forScope /Fo"DEBUG\\" /Fd"DEBUG\VC120.PDB" /TP /FU"C:\Program Files (x86)\Reference Assemblies\Microsoft\Framework\.NETFramework\v4.5\mscorlib.dll" /analyze- /clr:nostdlib  C:\USERS\ANTON\DESKTOP\MAYA\MAYA_TO_OPENGL\MAYA_TO_OPENGL\MAIN.CPP
^C:\STUDIES\HPC\REPOSITORY\MAYA\MAYA_TO_OPENGL\MAYA_TO_OPENGL\MAIN.CPP
/c /Ifreeglut\include /AI"C:\Program Files (x86)\Reference Assemblies\Microsoft\Framework\.NETFramework\v4.5\\" /AI"C:\Program Files (x86)\Windows Kits\8.1\References\CommonConfiguration\Neutral" /AI"C:\Program Files (x86)\Reference Assemblies\Microsoft\Framework\.NETFramework\v4.5\Facades\\" /Zi /clr /nologo /W3 /WX- /Od /Oy- /D WIN32 /D _DEBUG /D _UNICODE /D UNICODE /EHa /MDd /GS /fp:precise /Zc:wchar_t /Zc:forScope /Fo"DEBUG\\" /Fd"DEBUG\VC120.PDB" /TP /FU"C:\Program Files (x86)\Reference Assemblies\Microsoft\Framework\.NETFramework\v4.5\mscorlib.dll" /analyze- /clr:nostdlib  C:\STUDIES\HPC\REPOSITORY\MAYA\MAYA_TO_OPENGL\MAYA_TO_OPENGL\MAIN.CPP
^C:\USERS\ANTON\APPDATA\LOCAL\TEMP\.NETFRAMEWORK,VERSION=V4.5.ASSEMBLYATTRIBUTES.CPP
/c /Ifreeglut\include /Zi /clr /nologo /W3 /WX- /Od /Oy- /D WIN32 /D _DEBUG /D _UNICODE /D UNICODE /EHa /MDd /GS /fp:precise /Zc:wchar_t /Zc:forScope /Fo"DEBUG\\" /Fd"DEBUG\VC120.PDB" /TP /analyze- C:\USERS\ANTON\APPDATA\LOCAL\TEMP\.NETFRAMEWORK,VERSION=V4.5.ASSEMBLYATTRIBUTES.CPP
